Argument (~࿈ཚ) means DELETE [KILL] 
Python ~࿈ཚ

Strong Password Generator/Decryptor - adminsub.net
Strong Password Generator/Decryptor - adminsub.net
CFO|zjpFDz%}
-------------------- Phonetic pronunciation -------------------
CHARLIE FOXTROT OSCAR | zulu juliett papa FOXTROT DELTA zulu %}
------------------------ MD5 encryption -----------------------
84c7793c1e1cab9d8dd30d7895142189
------------------- Cisco Type 5 encryption -------------------
$1$5fc0$DGqbdceUxiVmQRiLJZBBB0
===============================================================
6fX?|OBNp?$t
-------------------- Phonetic pronunciation -------------------
6 foxtrot X-RAY ?| OSCAR BRAVO NOVEMBER papa ?$ tango
------------------------ MD5 encryption -----------------------
bb931faf822b501d099b6a37862f69ff
------------------- Cisco Type 5 encryption -------------------
$1$tRRt$mjmBkoVRh6aDJbheqV.uc/
===============================================================
{*YE[1j6irDx
-------------------- Phonetic pronunciation -------------------
{* YANKEE ECHO [1 juliett 6 india romeo DELTA x-ray
------------------------ MD5 encryption -----------------------
b4d2048d3aefcb58170c43413bd81660
------------------- Cisco Type 5 encryption -------------------
$1$9ouc$zOdJPG49Onm3eQQa6Mrc7/
===============================================================
6c*BR*%l!}vR
-------------------- Phonetic pronunciation -------------------
6 charlie * BRAVO ROMEO *% lima !} victor ROMEO
------------------------ MD5 encryption -----------------------
06f7a6fe2e118e30f2fbefda7cdfd0a7
------------------- Cisco Type 5 encryption -------------------
$1$QMvd$qz1RjXpU2BB5uzgjj5X2W0
===============================================================
540sxb[j42(m
-------------------- Phonetic pronunciation -------------------
540 sierra x-ray bravo [ juliett 42( mike
------------------------ MD5 encryption -----------------------
eef59c35869094aaac910f7e3b96dc5a
------------------- Cisco Type 5 encryption -------------------
$1$0gjK$F1We98wMme6tkrkYHM6yP/
===============================================================
vTqraK7QGOe0
-------------------- Phonetic pronunciation -------------------
victor TANGO quebec romeo alpha KILO 7 QUEBEC GOLF OSCAR echo 0
------------------------ MD5 encryption -----------------------
e1ee47fc9ee5fd3e1255179f134c0909
------------------- Cisco Type 5 encryption -------------------
$1$Heue$RKEtm/0WbE3th8lM5RBrk1
===============================================================
mj3iUm_1SK&e
-------------------- Phonetic pronunciation -------------------
mike juliett 3 india UNIFORM mike _1 SIERRA KILO & echo
------------------------ MD5 encryption -----------------------
2d07762c96e26aa6200318c82a26dd2d
------------------- Cisco Type 5 encryption -------------------
$1$1q8y$cDnvg.wniJQbGEAjv3BAB1
===============================================================
Za*E4hb)k2Sk
-------------------- Phonetic pronunciation -------------------
ZULU alpha * ECHO 4 hotel bravo ) kilo 2 SIERRA kilo
------------------------ MD5 encryption -----------------------
baccafd483784422ce004b3318a5262b
------------------- Cisco Type 5 encryption -------------------
$1$ppCI$zVLx3jNglyZW0ZcXBTktl1
===============================================================
ZqtO!EYl35kk
-------------------- Phonetic pronunciation -------------------
ZULU quebec tango OSCAR ! ECHO YANKEE lima 35 kilo kilo
------------------------ MD5 encryption -----------------------
0188c5f68c1b5c449dbd77a271c74464
------------------- Cisco Type 5 encryption -------------------
$1$6Bp4$/CDK12wJqy/ARo9oWkX/80
===============================================================
mQ$ip_~@1y18
-------------------- Phonetic pronunciation -------------------
mike QUEBEC $ india papa _~@1 yankee 18
------------------------ MD5 encryption -----------------------
2757f9b7c1c649a2eae617e0821d134b
------------------- Cisco Type 5 encryption -------------------
$1$NkBi$lT4bltpq0l354/pTyHTdU.
===============================================================
c}Eo20fMo13N
-------------------- Phonetic pronunciation -------------------
charlie } ECHO oscar 20 foxtrot MIKE oscar 13 NOVEMBER
------------------------ MD5 encryption -----------------------
f6e7a09d73ffa3aa8634c78dcbfe8387
------------------- Cisco Type 5 encryption -------------------
$1$W5Uq$WCWWZmEzf/T/.3pdf07GW/
===============================================================
&e&b^}2j8BUY
-------------------- Phonetic pronunciation -------------------
& echo & bravo ^}2 juliett 8 BRAVO UNIFORM YANKEE
------------------------ MD5 encryption -----------------------
01faac85cb8e0cff2f38103c75941a4f
------------------- Cisco Type 5 encryption -------------------
$1$1yik$abgRXp/VcCcg1UnNPJXdm.
===============================================================
Fbn2vcRNycAL
-------------------- Phonetic pronunciation -------------------
FOXTROT bravo november 2 victor charlie ROMEO NOVEMBER yankee charlie ALPHA LIMA
------------------------ MD5 encryption -----------------------
c2cba0ac1dcb9330faab8c7292f15af9
------------------- Cisco Type 5 encryption -------------------
$1$0O3b$ulW3EVIthFT0/Dm3llOSP1
===============================================================
jaiUA#PLv+V~
-------------------- Phonetic pronunciation -------------------
juliett alpha india UNIFORM ALPHA # PAPA LIMA victor + VICTOR ~
------------------------ MD5 encryption -----------------------
260e294919f992231f955a3c8547f35d
------------------- Cisco Type 5 encryption -------------------
$1$Xl9V$GI34OA4994ytLLk5faYzN.
===============================================================
HspEM!$SlgQG
-------------------- Phonetic pronunciation -------------------
HOTEL sierra papa ECHO MIKE !$ SIERRA lima golf QUEBEC GOLF
------------------------ MD5 encryption -----------------------
960d76c04e356b566a90863a5e60e5e4
------------------- Cisco Type 5 encryption -------------------
$1$O3ky$ApvYn2LB9B8N4jPa/1WLL/
===============================================================
}LWuKRUT#q27
-------------------- Phonetic pronunciation -------------------
} LIMA WHISKEY uniform KILO ROMEO UNIFORM TANGO # quebec 27
------------------------ MD5 encryption -----------------------
9fa43bb81cbfd786a418df00ffc8a835
------------------- Cisco Type 5 encryption -------------------
$1$H1zW$wg/7uRdllVqGVmAh0sLZH/
===============================================================
DpuC13g6X%Q8
-------------------- Phonetic pronunciation -------------------
DELTA papa uniform CHARLIE 13 golf 6 X-RAY % QUEBEC 8
------------------------ MD5 encryption -----------------------
7d6e32ace2da60abdb8a8b2e7c6fcd0e
------------------- Cisco Type 5 encryption -------------------
$1$Zg3F$eczsZN5ZsJzyl6bJXh3IQ/
===============================================================
i5O{sh[1QOIW
-------------------- Phonetic pronunciation -------------------
india 5 OSCAR { sierra hotel [1 QUEBEC OSCAR INDIA WHISKEY
------------------------ MD5 encryption -----------------------
10542f0d081986b5b045379cf2ae1c7f
------------------- Cisco Type 5 encryption -------------------
$1$vmWq$aV1xgIZlE/b8bgI5.E77I1
===============================================================
KY(@c0sTzh?f
-------------------- Phonetic pronunciation -------------------
KILO YANKEE (@ charlie 0 sierra TANGO zulu hotel ? foxtrot
------------------------ MD5 encryption -----------------------
f9b3265caa6ed49e2ecb6d8cb2490857
------------------- Cisco Type 5 encryption -------------------
$1$TG1T$jfLaVoJgBo8umptkzIg1G.
===============================================================
*--*qN6x#YXO
-------------------- Phonetic pronunciation -------------------
*--* quebec NOVEMBER 6 x-ray # YANKEE X-RAY OSCAR
------------------------ MD5 encryption -----------------------
548771b01adf3cef3bc89bba51e92ac5
------------------- Cisco Type 5 encryption -------------------
$1$yEet$3r8YXAPe0YKXqhSEm16U7.
===============================================================
T@d|*q!Gye2|
-------------------- Phonetic pronunciation -------------------
TANGO @ delta |* quebec ! GOLF yankee echo 2|
------------------------ MD5 encryption -----------------------
075a7ff7bf262d8b950514f92be03025
------------------- Cisco Type 5 encryption -------------------
$1$akzE$JzQCvAozBssjMehU5WXyO0
===============================================================
2BHR%{?mNXzx
-------------------- Phonetic pronunciation -------------------
2 BRAVO HOTEL ROMEO %{? mike NOVEMBER X-RAY zulu x-ray
------------------------ MD5 encryption -----------------------
f8e4f4f5a1d1d143b91a8456ee547389
------------------- Cisco Type 5 encryption -------------------
$1$XLZo$3mYQY5.Cr0kXZDwwsnzpc0
===============================================================
dA!QZ)2eP_bD
-------------------- Phonetic pronunciation -------------------
delta ALPHA ! QUEBEC ZULU )2 echo PAPA _ bravo DELTA
------------------------ MD5 encryption -----------------------
c5bddac175a844c053c56c01f1026faf
------------------- Cisco Type 5 encryption -------------------
$1$Tij3$sugnlxi4P3cVh0IP1NwSO1
===============================================================
1vg!siP^8C5L
-------------------- Phonetic pronunciation -------------------
1 victor golf ! sierra india PAPA ^8 CHARLIE 5 LIMA
------------------------ MD5 encryption -----------------------
5a11a0839b140a8ded18ca29c4623a4b
------------------- Cisco Type 5 encryption -------------------
$1$4C3c$DQzfW.3fvoNONJdC5Oy5P0
===============================================================
_-@(b6thcSq*
-------------------- Phonetic pronunciation -------------------
_-@( bravo 6 tango hotel charlie SIERRA quebec *
------------------------ MD5 encryption -----------------------
86a5d8c8a06e431e6f16643d9e151fd2
------------------- Cisco Type 5 encryption -------------------
$1$GGtz$vuP/qsv2LOyUwdLIMWDL8.
===============================================================
yG3q5*iKR0%j
-------------------- Phonetic pronunciation -------------------
yankee GOLF 3 quebec 5* india KILO ROMEO 0% juliett
------------------------ MD5 encryption -----------------------
f07d6ae7f70f198cf2f671344f72ddf7
------------------- Cisco Type 5 encryption -------------------
$1$41l4$bey1JCpKND.585trqHOHh/
===============================================================
spq&hs5#|[-)
-------------------- Phonetic pronunciation -------------------
sierra papa quebec & hotel sierra 5#|[-)
------------------------ MD5 encryption -----------------------
c12e681420445bd7310c9ffd0d963590
------------------- Cisco Type 5 encryption -------------------
$1$toqX$LIgIYEpNs/ksBj4380O0T0
===============================================================
H5RLsGtKF(T?
-------------------- Phonetic pronunciation -------------------
HOTEL 5 ROMEO LIMA sierra GOLF tango KILO FOXTROT ( TANGO ?
------------------------ MD5 encryption -----------------------
d4e62ef7f987bee0304fab57df4ff4e1
------------------- Cisco Type 5 encryption -------------------
$1$aPpY$ZL1VxN7pWCDyytMp4fbvp/
===============================================================
byNzP**IEie7
-------------------- Phonetic pronunciation -------------------
bravo yankee NOVEMBER zulu PAPA ** INDIA ECHO india echo 7
------------------------ MD5 encryption -----------------------
fd3c02c229c6db38745a334c987092e7
------------------- Cisco Type 5 encryption -------------------
$1$F7Yd$BLfsHvp7qOC4I022SpyLa.
===============================================================
iSc$*s_nAGSx
-------------------- Phonetic pronunciation -------------------
india SIERRA charlie $* sierra _ november ALPHA GOLF SIERRA x-ray
------------------------ MD5 encryption -----------------------
f1bafb0073a4334b57094e6571a6e9d8
------------------- Cisco Type 5 encryption -------------------
$1$UjUV$1x.8O6xqwiQtDNrsFc1fK/
============
